Code,Economy,Financing for entrepreneurs,Governmental support and policies,Taxes and bureaucracy,Governmental programs,Basic-school Entrepreneurial Education and training,Post-school entrepreneurial education and training,R&D Transfer,Commercial and professional infrastructure,Internal market dynamics,Internal market openness,Physical and services infrastructure,Cultural and social norms
213,ALGERIA,2.91,3.16,2.63,3.11,2.22,2.67,2.73,3.12,3.4,2.59,3.18,2.99
54,ARGENTINA,2.1,1.87,1.67,2.29,1.97,2.92,2.29,2.84,2.91,2.45,3.73,2.66
61,AUSTRALIA,2.34,2.21,2.26,2.62,2.3,2.87,2.49,3.19,3.03,2.94,4.07,3.28
880,BANGLADESH,2.9,2.97,2.51,2.48,2.08,3.15,2.55,3.29,3.14,2.62,3.41,3.2
1246,BARBADOS,2.11,2.51,2.34,2.3,1.94,2.66,1.84,3.05,2.44,2.29,3.53,2.58
387,BOSNIA & HZ,2.27,1.99,1.78,2.18,2.09,2.43,2.01,2.9,3.16,2.01,3.41,2.17
55,BRAZIL,2.43,2.21,1.52,2.42,1.56,2.57,2.18,2.57,3.5,2.26,3.17,2.6
56,CHILE,2.42,3.09,2.84,2.79,1.78,2.72,2.27,2.87,2.41,2.47,4.07,2.93
57,COLOMBIA,1.96,2.66,2.12,2.54,2.14,3.23,2.06,2.44,2.62,2.14,3,2.78
385,CROATIA,2.26,2.07,1.84,2.36,1.88,2.73,2.25,2.84,3.32,2.22,3.65,2.27
420,CZECH RP,2.09,1.83,2.06,2.18,1.7,2.59,2.18,3.02,2.95,2.84,3.93,2.18
358,FINLAND,2.62,3.16,2.89,2.74,2.34,2.77,2.57,3.26,2.91,2.56,4.01,2.65
33,FRANCE,2.47,3.07,2.88,3.2,1.55,2.98,2.44,2.98,3.22,2.13,4.21,2.36
49,GERMANY,2.95,2.94,2.85,3.63,1.92,2.68,2.85,3.3,2.88,2.95,3.84,2.64
30,GREECE,1.88,1.88,1.83,1.96,1.94,2.64,2.13,2.86,3.12,2.18,3.46,2.44
502,GUATEMALA,2.22,1.72,2.2,2.23,1.81,3.29,2.04,3.3,2.54,2.55,4.02,2.72
36,HUNGARY,2.34,1.86,1.82,2.05,1.44,2.69,2.02,3.03,3.04,2.24,3.77,2.05
98,IRAN,1.7,1.72,1.78,1.57,1.37,2.44,1.96,2.58,3.25,1.6,3.11,2.2
353,IRELAND,2.41,2.7,2.64,3.18,1.95,2.87,2.83,3.28,3.06,2.91,3.51,3.21
876,JAMAICA,2.53,2.42,1.78,2.33,2.05,2.73,1.95,2.93,2.5,2.55,3.27,3.19
82,KOREA SR,2.25,2.93,2.67,2.72,2.08,2.38,2.36,2.2,3.94,2.23,4.01,3
371,LATVIA,2.2,2.63,2.47,2.75,2.32,2.69,2.07,3.5,2.87,2.7,3.67,2.61
370,LITHUANIA,2.63,2.24,2.1,2.28,2,2.75,2.19,2.95,3.72,2.25,3.95,2.48
60,MALAYSIA,3.02,2.82,2.52,2.67,2,2.73,2.44,3.09,3.1,2.43,4.02,2.83
52,MEXICO,2.26,2.68,2.39,2.87,1.86,3.13,2.33,2.54,2.69,2.22,3.47,3.01
31,NETEHERLANDS,2.88,2.46,2.6,3.1,2.88,3.21,2.85,3.57,2.59,3.28,4.56,3
234,NIGERIA,1.92,1.86,1.68,2.03,2.1,2.96,1.79,2.69,3.34,2.27,2.7,3.19
47,NORWAY,2.81,2.31,2.82,2.92,2.53,2.63,2.74,3.41,2.84,2.34,4.26,2.63
92,PAKISTAN,2.1,2.15,2.13,1.84,2,2.81,1.9,3.14,2.91,2.56,3.48,2.73
507,PANAMA,2.23,2.38,3.02,2.95,1.41,2.51,2.21,2.64,2.44,2.67,3.97,2.93
51,PERU,2.34,2.27,2.45,2.36,2.1,3.07,2.12,2.83,2.65,2.66,3.44,3.15
48,POLAND,2.52,2.86,1.94,2.58,2.02,2.46,2.21,2.9,4.15,2.91,3.44,2.77
351,PORTUGAL,3.05,2.57,1.91,2.86,1.73,2.81,2.46,2.95,2.77,2.35,3.96,1.88
7,RUSSIA,2.02,2.39,1.83,2.16,2.14,2.85,1.9,2.77,3.18,1.97,3.1,2.34
65,SINGAPORE,3.02,3.49,4.03,3.45,2.48,3.18,2.9,3.23,2.83,3.13,4.7,3.21
421,SLOVAKIA,2.13,2.19,2.44,2.04,1.99,2.62,1.87,3.29,2.74,2.59,3.98,2.29
386,SLOVENIA,2.38,2.36,2.05,2.67,1.8,2.64,2.51,2.94,2.97,2.46,3.98,2.21
27,SOUTH AFRICA,2.46,2.6,2.26,2.06,2.03,2.51,2.25,2.96,2.45,2.45,3.05,2.46
34,SPAIN,2.06,2.06,2.21,2.72,1.56,2.34,2.13,2.58,2.69,2.16,3.46,2.21
46,SWEDEN,2.66,2.63,2.61,2.84,2.3,2.84,2.63,3.08,3.19,2.54,4.44,2.91
41,SWITZERLAND,3.5,3.35,3.49,3.42,2.6,3.5,3.46,3.89,2.5,3.12,4.57,3.29
886,TAIWAN,3.21,2.59,3.2,3.14,2.47,3.1,2.88,2.87,3.85,3.33,4.12,3.72
66,THAILAND,2.86,2.86,2.81,2.6,2.18,3.15,2.4,3.19,3.5,2.57,3.89,3.29
1868,TRINIDAD&T,2.48,2.33,2.29,2.07,1.93,2.63,2.09,3.21,2.66,2.31,3.72,2.63
90,TURKEY,2.38,2.65,2.32,2.32,2.19,2.6,2.26,2.97,3.58,2.27,3.45,2.66
971,UAE,3.1,3.34,3.2,3.14,2.6,3.3,2.56,3.45,3.6,2.85,4.14,3.41
44,UK,2.29,2.62,3.01,2.31,2.21,2.6,2.22,3.28,3.04,3.04,3.93,3.08
598,URUGUAY,2.26,2.22,2.37,2.93,1.83,2.83,2.63,3.19,1.93,2.44,3.7,2.23
582,VENEZUELA,1.95,1.9,1.61,1.82,1.72,3.17,2.03,2.88,3.53,2.39,3.27,2.91