"","Code","Economy","Financing.for.entrepreneurs","Governmental.support.and.policies","Taxes.and.bureaucracy","growth"
"1",54,"ARGENTINA",3.07,2.96,1.93,3.12435233160622
"2",61,"AUSTRALIA",3.95,3.65,4.21,1.80522565320665
"3",1246,"BARBADOS",3.05,3.74,2.47,2.74898785425101
"4",32,"BELGIUM",5.28,6.48,3.17,3.70977917981073
"5",267,"BOTSWANA",4.05,4.16,4.07,2.01719901719902
"6",55,"BRAZIL",3.93,3.67,2.23,3.40807174887892
"7",359,"BULGARIA",4.36,2.93,4.75,1.53473684210526
"8",226,"BURKINA FASO",3.56,3.73,4.68,1.55769230769231
"9",237,"CAMEROON",3.57,4.52,3.83,2.11227154046997
"10",101,"CANADA",5.23,4.73,5.17,1.92649903288201
"11",56,"CHILE",3.52,4.58,5.37,1.50837988826816
"12",86,"CHINA",4.86,5.78,4.44,2.3963963963964
"13",57,"COLOMBIA",3.18,3.75,3.35,2.06865671641791
"14",385,"CROATIA",3.3,2.84,1.99,3.08542713567839
"15",593,"ECUADOR",3.36,4.73,3.17,2.55205047318612
"16",20,"EGYPT",3.5,3.31,3.07,2.21824104234528
"17",372,"ESTONIA",4.86,3.83,4.9,1.7734693877551
"18",358,"FINLAND",4.31,5.35,4.9,1.97142857142857
"19",49,"GERMANY",4.3,4.25,3.85,2.22077922077922
"20",30,"GREECE",3.03,2.93,2.33,2.55793991416309
"21",502,"GUATEMALA",2.82,2.63,3.2,1.703125
"22",36,"HUNGARY",3.97,2.71,2.42,2.7603305785124
"23",91,"INDIA",5.74,5.5,3.94,2.85279187817259
"24",62,"INDONESIA",4.92,5.11,4.37,2.29519450800915
"25",98,"IRAN",3.28,3.76,3.25,2.16615384615385
"26",353,"IRELAND",5.42,4.94,4.8,2.15833333333333
"27",972,"ISRAEL",5.1,3.7,2.53,3.47826086956522
"28",39,"ITALY",3.98,3.09,2.35,3.00851063829787
"29",81,"JAPAN",4.2,5.03,3.68,2.50815217391304
"30",701,"KAZAKHSTAN",3.6,5.27,4.46,1.98878923766816
"31",371,"LATVIA",4.5,3.74,3.76,2.19148936170213
"32",961,"LEBANON",5.22,3.28,4.14,2.05314009661836
"33",352,"LUXEMBOURG",4.07,5.27,5.6,1.66785714285714
"34",389,"MACEDONIA",3.95,4.03,4.61,1.73101952277657
"35",60,"MALAYSIA",5.77,5.18,5.18,2.11389961389961
"36",52,"MEXICO",4.04,4.75,3.65,2.40821917808219
"37",212,"MOROCCO",4.26,3.57,3.6,2.175
"38",31,"NETEHERLANDS",5.74,5.38,5.77,1.92720970537262
"39",47,"NORWAY",4.17,3.67,4.29,1.82750582750583
"40",507,"PANAMA",3.28,2.74,5.53,1.08860759493671
"41",51,"PERU",3.02,3.13,2.98,2.06375838926175
"42",63,"PHILIPPINES",5.09,3.85,2.87,3.11498257839721
"43",48,"POLAND",4.73,4.6,3.44,2.71220930232558
"44",351,"PORTUGAL",4.69,4.95,5.8,1.66206896551724
"45",1787,"PUERTO RICO",3.3,4.14,2.16,3.44444444444444
"46",40,"ROMANIA",3.37,3.58,3.46,2.00867052023121
"47",221,"SENEGAL",3.6,4.07,4.87,1.57494866529774
"48",421,"SLOVAKIA",4.28,3.68,3.39,2.34808259587021
"49",386,"SLOVENIA",4.21,4.04,3.11,2.65273311897106
"50",27,"SOUTH AFRICA",4.01,4.13,3.08,2.64285714285714
"51",82,"SOUTH KOREA",3.88,5.79,4.58,2.11135371179039
"52",34,"SPAIN",3.99,4.02,3.76,2.13031914893617
"53",46,"SWEDEN",4.65,3.95,3.91,2.19948849104859
"54",41,"SWITZERLAND",5.29,5.72,5.82,1.89175257731959
"55",886,"TAIWAN",4.71,4.37,4.5,2.01777777777778
"56",66,"THAILAND",4.17,4.04,4.02,2.04228855721393
"57",216,"TUNISIA",4.21,4.07,2.7,3.06666666666667
"58",90,"TURKEY",3.8,4.36,3.42,2.3859649122807
"59",44,"UK",5.36,4.58,4.36,2.27981651376147
"60",598,"URUGUAY",3.7,3.37,3.73,1.89544235924933
"61",1,"USA",5.41,4.35,4.59,2.12636165577342
"62",84,"VIETNAM",3.45,4.33,4.61,1.68763557483731
